<?xml version="1.0" encoding="utf-8"?>
<!-- Generator: Adobe Illustrator 24.2.1, SVG Export Plug-In . SVG Version: 6.00 Build 0)  -->
<svg version="1.1" id="Слой_1" xmlns:serif="http://www.serif.com/"
	 xmlns="http://www.w3.org/2000/svg" xmlns:xlink="http://www.w3.org/1999/xlink" x="0px" y="0px" width="64px" height="64px"
	 viewBox="0 0 64 64" style="enable-background:new 0 0 64 64;" xml:space="preserve">
<style type="text/css">
	.st0{fill:none;}
	
	.st1{fill-rule:evenodd;clip-rule:evenodd;fill:#FFFFFF;stroke:#22204D;stroke-width:2;stroke-linecap:round;stroke-linejoin:round;stroke-miterlimit:1.5;}
	.st2{fill:none;stroke:#CD5A46;stroke-width:1.93;stroke-linecap:round;stroke-linejoin:round;stroke-miterlimit:1.5;}

	@keyframes circleAn {
  0%{transform: rotate(0deg)}
  100%{transform: rotate(360deg)}
	}


	#circle{
		transform-origin: 50% 50%;
		transform: rotate(0deg);
		animation: circleAn 5s infinite linear;
		transform-box: fill-box;
	}
</style>
<g transform="matrix(1,0,0,1,-84,0)">
	<g id="Naruto" transform="matrix(1,0,0,1,-188.333,0)">
		<rect x="272.3" y="0" class="st0" width="64" height="64"/>
		<g transform="matrix(1,0,0,1,180.333,0)">
			<path class="st1" d="M121.5,5.7c0.4-1,1.4-1.7,2.5-1.7s2.1,0.7,2.5,1.7l1.8,4.4l3.4-3.3c0.8-0.8,2-1,3-0.6c1,0.4,1.7,1.4,1.7,2.5
				l0,4.7l4.4-1.8c1-0.4,2.2-0.2,3,0.6c0.8,0.8,1,1.9,0.6,3l-1.8,4.4l4.7,0c1.1,0,2.1,0.7,2.5,1.7c0.4,1,0.2,2.2-0.6,3l-3.3,3.4
				l4.4,1.8c1,0.4,1.7,1.4,1.7,2.5c0,1.1-0.7,2.1-1.7,2.5l-4.4,1.8l3.3,3.4c0.8,0.8,1,2,0.6,3c-0.4,1-1.4,1.7-2.5,1.7l-4.7,0
				l1.8,4.4c0.4,1,0.2,2.2-0.6,3c-0.8,0.8-1.9,1-3,0.6l-4.4-1.8l0,4.7c0,1.1-0.7,2.1-1.7,2.5c-1,0.4-2.2,0.2-3-0.6l-3.4-3.3
				l-1.8,4.4c-0.4,1-1.4,1.7-2.5,1.7s-2.1-0.7-2.5-1.7l-1.8-4.4l-3.4,3.3c-0.8,0.8-2,1-3,0.6c-1-0.4-1.7-1.4-1.7-2.5l0-4.7l-4.4,1.8
				c-1,0.4-2.2,0.2-3-0.6c-0.8-0.8-1-1.9-0.6-3l1.8-4.4l-4.7,0c-1.1,0-2.1-0.7-2.5-1.7c-0.4-1-0.2-2.2,0.6-3l3.3-3.4l-4.4-1.8
				c-1-0.4-1.7-1.4-1.7-2.5c0-1.1,0.7-2.1,1.7-2.5l4.4-1.8l-3.3-3.4c-0.8-0.8-1-2-0.6-3c0.4-1,1.4-1.7,2.5-1.7l4.7,0l-1.8-4.4
				c-0.4-1-0.2-2.2,0.6-3c0.8-0.8,1.9-1,3-0.6l4.4,1.8l0-4.7c0-1.1,0.7-2.1,1.7-2.5c1-0.4,2.2-0.2,3,0.6l3.4,3.3L121.5,5.7z"/>
		</g>
		<g transform="matrix(1.01035,0,0,1.05877,185.386,2.13651)">
			<path id="circle" class="st2" d="M116,31c0,0-1.7-6.5,6-6s4.3,7.5,1,10s-15.8,3.7-14-7s11-8,11-8"/>
		</g>
	</g>
</g>
</svg>
