<?xml version="1.0" encoding="utf-8"?>
<!-- Generator: Adobe Illustrator 24.2.1, SVG Export Plug-In . SVG Version: 6.00 Build 0)  -->
<svg version="1.1" id="Слой_1" xmlns="http://www.w3.org/2000/svg" xmlns:xlink="http://www.w3.org/1999/xlink" x="0px" y="0px"
	 width="749.6px" height="256px" viewBox="0 0 749.6 256" enable-background="new 0 0 749.6 256" xml:space="preserve">
<desc>Created with Fabric.js 1.7.22</desc>
<style>
@keyframes headAn {
  0%{transform: rotate(0deg)}
  20%{transform: rotate(10deg)}
	40%, 100%{transform: rotate(0deg)}
}

@keyframes handAn {
  0%{transform: translate(0, 0) rotate(0deg)}
  20%{transform: translate(1px, 4px) rotate(5deg)}
	40%, 100%{transform: translate(0,0) rotate(0deg)}
}

#head{
  transform-origin: 50% 50%;
  transform: rotate(0deg);
  animation: headAn 5s infinite;
	transform-box: fill-box;
}

#hand{
  transform: translate(0, 0) rotate(0deg);
  animation: handAn 5s  infinite;
	transform-box: fill-box;
}
</style>
<g transform="translate(128 128) scale(0.72 0.72)">
	<g transform="translate(-175.05 -175.05000000000004) scale(3.89 3.89)">
		<path fill="#EAEAEA" d="M56.11,89H36.24c-11.98,0-21.69-9.71-21.69-21.69l0,0c0-11.98,9.71-21.69,21.69-21.69h19.87
			c11.98,0,21.69,9.71,21.69,21.69l0,0C77.8,79.29,68.09,89,56.11,89z"/>
		<path fill="#1D1D1B" d="M56.11,90H36.24c-12.51,0-22.69-10.18-22.69-22.69s10.18-22.69,22.69-22.69h19.87
			c12.51,0,22.69,10.18,22.69,22.69C78.79,79.82,68.62,90,56.11,90z M36.24,46.62c-11.41,0-20.69,9.28-20.69,20.69
			C15.55,78.72,24.83,88,36.24,88h19.87c11.41,0,20.69-9.28,20.69-20.69c0-11.41-9.28-20.69-20.69-20.69L36.24,46.62L36.24,46.62z"
			/>
		<path fill="#FF6C52" d="M69.03,45.72c0,8.4-10.23,15.21-22.86,15.21s-22.86-6.81-22.86-15.21H69.03z"/>
		<path fill="#1D1D1B" d="M46.17,61.93c-13.15,0-23.86-7.27-23.86-16.21c0-0.55,0.45-1,1-1h45.71c0.55,0,1,0.45,1,1
			C70.03,54.66,59.33,61.93,46.17,61.93z M24.37,46.73c0.79,7.37,10.27,13.21,21.8,13.21s21.01-5.84,21.8-13.21H24.37z"/>
		<path fill="#FFD278" d="M50.55,66.99c0,2.42-1.96,4.38-4.38,4.38s-4.38-1.96-4.38-4.38s1.96-6.06,4.38-6.06
			S50.55,64.58,50.55,66.99z"/>
		<path fill="#1D1D1B" d="M46.17,72.37c-2.96,0-5.38-2.41-5.38-5.38c0-2.85,2.26-7.06,5.38-7.06c3.12,0,5.38,4.22,5.38,7.06
			C51.55,69.96,49.14,72.37,46.17,72.37z M46.17,61.93c-1.63,0-3.38,2.97-3.38,5.06c0,1.86,1.51,3.38,3.38,3.38s3.38-1.51,3.38-3.38
			C49.55,64.9,47.8,61.93,46.17,61.93z"/>
		<path fill="#EAEAEA" d="M67.97,89H54.38c-1.91,0-3.47-1.55-3.47-3.47v-2.64c0-5.67,4.59-10.26,10.26-10.26l0,0
			c5.67,0,10.26,4.59,10.26,10.26v2.64C71.43,87.45,69.88,89,67.97,89z"/>
		<path fill="#1D1D1B" d="M67.97,90H54.38c-2.46,0-4.47-2-4.47-4.47v-2.64c0-6.21,5.05-11.26,11.26-11.26
			c6.21,0,11.26,5.05,11.26,11.26v2.64C72.43,88,70.43,90,67.97,90z M61.17,73.63c-5.11,0-9.26,4.15-9.26,9.26v2.64
			c0,1.36,1.11,2.47,2.47,2.47h13.59c1.36,0,2.47-1.11,2.47-2.47v-2.64C70.43,77.78,66.28,73.63,61.17,73.63z"/>
		<path fill="#EAEAEA" d="M37.97,89H24.38c-1.91,0-3.47-1.55-3.47-3.47v-2.64c0-5.67,4.59-10.26,10.26-10.26l0,0
			c5.67,0,10.26,4.59,10.26,10.26v2.64C41.43,87.45,39.88,89,37.97,89z"/>
		<path fill="#1D1D1B" d="M37.97,90H24.38c-2.46,0-4.47-2-4.47-4.47v-2.64c0-6.21,5.05-11.26,11.26-11.26s11.26,5.05,11.26,11.26
			v2.64C42.43,88,40.43,90,37.97,90z M31.17,73.63c-5.11,0-9.26,4.15-9.26,9.26v2.64c0,1.36,1.11,2.47,2.47,2.47h13.59
			c1.36,0,2.47-1.11,2.47-2.47v-2.64C40.43,77.78,36.28,73.63,31.17,73.63z"/>
		<path fill="#F3B589" d="M12.95,82.75L6.51,63.86c-1.64-4.82,0.93-10.06,5.75-11.7l0,0c4.82-1.64,10.06,0.93,11.7,5.75L30.4,76.8
			c1.64,4.82-0.93,10.06-5.75,11.7l0,0C19.83,90.15,14.59,87.57,12.95,82.75z"/>
		<path fill="#1D1D1B" d="M21.69,90c-4.26,0-8.24-2.68-9.68-6.93l0,0L5.57,64.19c-1.82-5.33,1.04-11.15,6.38-12.97
			c2.59-0.88,5.36-0.7,7.81,0.5c2.45,1.21,4.28,3.29,5.17,5.88l6.44,18.89c1.82,5.33-1.04,11.15-6.38,12.97
			C23.89,89.82,22.78,90,21.69,90z M13.9,82.43c1.46,4.29,6.14,6.59,10.43,5.13c4.29-1.46,6.59-6.14,5.13-10.43l-6.44-18.89
			c-0.71-2.08-2.18-3.76-4.16-4.73c-1.97-0.97-4.2-1.11-6.28-0.4c-4.29,1.46-6.59,6.14-5.13,10.44L13.9,82.43L13.9,82.43z"/>
		<path fill="#EAEAEA" d="M59.16,58.24c5.97-2.64,13.11-11.13,13.56-16.56h11.02c1.5,8.07-1.5,19.06-8.01,24.66"/>
		<g id="head">
			<path fill="#EAEAEA" d="M74.07,27.58c0.4-2.3,0.42-4.84-0.04-7.54C72.26,9.81,63.95,0.93,58.27,1c-2.95,1.55-5.73,5.02-7.03,9.83
				c-1.65-0.24-3.34-0.38-5.06-0.38s-3.42,0.13-5.06,0.38c-1.3-4.81-4.08-8.29-7.03-9.83c-5.69-0.07-14,8.81-15.77,19.04
				c-0.47,2.7-0.44,5.24-0.04,7.54c-0.93,2.41-1.43,4.98-1.43,7.65c0,13.68,13.13,19.68,29.33,19.68s29.33-6,29.33-19.68
				C75.5,32.56,75,29.99,74.07,27.58z"/>
			<path fill="#1D1D1B" d="M31.7,26.33c-0.15,0-0.3-0.03-0.44-0.1c-0.5-0.24-0.7-0.84-0.46-1.34c0.87-1.78,2.9-2.93,5.16-2.93
				s4.29,1.15,5.16,2.93c0.24,0.5,0.04,1.09-0.46,1.34c-0.5,0.24-1.1,0.04-1.34-0.46c-0.53-1.08-1.88-1.81-3.36-1.81
				s-2.83,0.73-3.36,1.81C32.42,26.12,32.07,26.33,31.7,26.33z"/>
			<path fill="#1D1D1B" d="M52.12,26.33c-0.15,0-0.3-0.03-0.44-0.1c-0.5-0.24-0.7-0.84-0.46-1.34c0.87-1.78,2.9-2.93,5.16-2.93
				c2.26,0,4.29,1.15,5.16,2.93c0.24,0.5,0.04,1.09-0.46,1.34c-0.5,0.24-1.1,0.04-1.34-0.46c-0.53-1.08-1.88-1.81-3.36-1.81
				c-1.48,0-2.83,0.73-3.36,1.81C52.85,26.12,52.49,26.33,52.12,26.33z"/>
			<path fill="#1D1D1B" d="M43.2,42.24c-2.19,0-3.97-1.78-3.97-3.97c0-0.55,0.45-1,1-1s1,0.45,1,1c0,1.09,0.88,1.97,1.97,1.97
				c1.08,0,1.97-0.88,1.97-1.97c0-0.55,0.45-1,1-1s1,0.45,1,1C47.17,40.46,45.39,42.24,43.2,42.24z"/>
			<path fill="#1D1D1B" d="M49.14,42.24c-2.19,0-3.97-1.78-3.97-3.97v-1.45c0-0.55,0.45-1,1-1s1,0.45,1,1v1.45
				c0,1.09,0.88,1.97,1.97,1.97s1.97-0.88,1.97-1.97c0-0.55,0.45-1,1-1s1,0.45,1,1C53.11,40.46,51.33,42.24,49.14,42.24z"/>
			<path fill="#1D1D1B" d="M34.97,36.27h-7.59c-0.55,0-1-0.45-1-1s0.45-1,1-1h7.59c0.55,0,1,0.45,1,1S35.52,36.27,34.97,36.27z"/>
			<path fill="#1D1D1B" d="M34.97,33.27c-0.12,0-0.25-0.02-0.37-0.07l-7.59-3c-0.51-0.2-0.76-0.78-0.56-1.3
				c0.2-0.51,0.78-0.76,1.3-0.56l7.59,3c0.51,0.2,0.76,0.78,0.56,1.3C35.74,33.03,35.36,33.27,34.97,33.27z"/>
			<path fill="#1D1D1B" d="M27.38,42.27c-0.4,0-0.77-0.24-0.93-0.63c-0.2-0.51,0.05-1.1,0.56-1.3l7.59-3c0.51-0.2,1.1,0.05,1.3,0.56
				s-0.05,1.1-0.56,1.3l-7.59,3C27.63,42.25,27.5,42.27,27.38,42.27z"/>
			<path fill="#1D1D1B" d="M64.97,36.27h-7.59c-0.55,0-1-0.45-1-1s0.45-1,1-1h7.59c0.55,0,1,0.45,1,1S65.52,36.27,64.97,36.27z"/>
			<path fill="#1D1D1B" d="M57.38,33.27c-0.4,0-0.77-0.24-0.93-0.63c-0.2-0.51,0.05-1.09,0.56-1.3l7.59-3
				c0.51-0.2,1.09,0.05,1.3,0.56c0.2,0.51-0.05,1.09-0.56,1.3l-7.59,3C57.63,33.25,57.5,33.27,57.38,33.27z"/>
			<path fill="#1D1D1B" d="M64.97,42.27c-0.12,0-0.25-0.02-0.37-0.07l-7.59-3c-0.51-0.2-0.77-0.78-0.56-1.3
				c0.2-0.51,0.79-0.76,1.3-0.56l7.59,3c0.51,0.2,0.77,0.78,0.56,1.3C65.74,42.03,65.36,42.27,64.97,42.27z"/>
			<path fill="#1D1D1B" d="M25.74,16.25c-0.16,0-0.32-0.04-0.47-0.12c-0.49-0.26-0.67-0.87-0.41-1.35c1.55-2.87,3.64-5.4,5.87-7.11
				c0.44-0.34,1.07-0.25,1.4,0.19c0.33,0.44,0.25,1.07-0.19,1.4c-2.01,1.54-3.91,3.84-5.32,6.47
				C26.44,16.06,26.09,16.25,25.74,16.25z"/>
			<path fill="#1D1D1B" d="M66.61,16.25c-0.36,0-0.7-0.19-0.88-0.52c-1.42-2.63-3.31-4.93-5.32-6.47c-0.44-0.34-0.52-0.96-0.19-1.4
				c0.33-0.44,0.97-0.52,1.4-0.19c2.23,1.71,4.32,4.23,5.87,7.1c0.26,0.49,0.08,1.09-0.4,1.36C66.93,16.21,66.77,16.25,66.61,16.25z
				"/>
			<path fill="#ACA7A7" d="M49.15,32.7c0-1.64-1.33-2.98-2.97-2.98s-2.97,1.33-2.97,2.98c0,1.64,1.33,4.12,2.97,4.12
				C47.81,36.82,49.15,34.34,49.15,32.7z"/>
			<path fill="#1D1D1B" d="M46.17,37.82c-2.39,0-3.97-3.08-3.97-5.12c0-2.19,1.78-3.98,3.97-3.98c2.19,0,3.98,1.78,3.98,3.98
				C50.15,34.74,48.56,37.82,46.17,37.82z M46.17,30.72c-1.09,0-1.97,0.89-1.97,1.97c0,1.23,1.06,3.12,1.97,3.12
				c0.92,0,1.98-1.89,1.98-3.12C48.15,31.61,47.26,30.72,46.17,30.72z"/>
			<path fill="#1D1D1B" d="M46.17,55.91c-18.99,0-30.33-7.73-30.33-20.68c0-2.64,0.47-5.24,1.4-7.75c-0.39-2.45-0.36-5.01,0.09-7.61
				C19.25,8.77,28.06-0.1,34.09,0c0.16,0,0.31,0.04,0.45,0.11c3.23,1.69,5.91,5.25,7.28,9.61c2.91-0.36,5.78-0.36,8.69,0
				c1.37-4.36,4.05-7.92,7.29-9.61C57.94,0.04,58.1,0,58.25,0c0.03,0,0.05,0,0.08,0c6.02,0,14.77,8.81,16.68,19.86
				c0.45,2.6,0.48,5.15,0.09,7.61c0.93,2.51,1.4,5.12,1.4,7.75C76.5,48.18,65.17,55.91,46.17,55.91z M33.83,2
				c-5.11,0.19-12.87,8.64-14.53,18.2c-0.43,2.47-0.44,4.89-0.04,7.2c0.03,0.18,0.01,0.36-0.05,0.53c-0.91,2.36-1.37,4.81-1.37,7.29
				c0,11.7,10.59,18.68,28.33,18.68S74.5,46.92,74.5,35.22c0-2.48-0.46-4.93-1.37-7.29c-0.06-0.17-0.08-0.35-0.05-0.53
				c0.4-2.31,0.38-4.73-0.04-7.2c-1.65-9.56-9.41-18-14.52-18.2c-2.85,1.6-5.2,4.97-6.31,9.09c-0.13,0.49-0.62,0.8-1.11,0.73
				c-3.29-0.48-6.55-0.48-9.84,0c-0.5,0.08-0.98-0.24-1.11-0.73C39.03,6.98,36.68,3.6,33.83,2z"/>
		</g>
		<path fill="#1D1D1B" d="M75.73,67.34c-0.28,0-0.56-0.12-0.76-0.35c-0.36-0.42-0.31-1.05,0.11-1.41
			c6.29-5.41,8.84-15.68,7.82-22.91h-9.3C72.5,48.71,65.55,57.1,59.87,59c-0.52,0.18-1.09-0.11-1.26-0.63s0.11-1.09,0.63-1.26
			c5.56-1.86,12.09-10.69,12.48-15.51c0.04-0.52,0.48-0.92,1-0.92h11.02c0.48,0,0.9,0.34,0.98,0.82c1.69,9.05-1.9,20.06-8.34,25.61
			C76.19,67.26,75.96,67.34,75.73,67.34z"/>
		<path fill="#EAEAEA" d="M5.05,50.7l9.45-4c1.33-0.56,2.87,0.06,3.43,1.39l0.78,1.84c1.67,3.94-0.17,8.49-4.11,10.15l0,0
			c-3.94,1.67-8.49-0.17-10.15-4.11l-0.78-1.84C3.09,52.8,3.72,51.27,5.05,50.7z"/>
		<path fill="#1D1D1B" d="M11.57,61.7c-1.11,0-2.22-0.22-3.28-0.65c-2.17-0.88-3.86-2.54-4.77-4.7l-0.78-1.84
			c-0.38-0.89-0.38-1.87-0.02-2.77s1.05-1.6,1.94-1.97l0,0l9.45-4c0.89-0.38,1.87-0.38,2.77-0.02c0.9,0.36,1.6,1.05,1.97,1.94
			l0.78,1.84c1.88,4.44-0.2,9.58-4.64,11.47C13.88,61.47,12.73,61.7,11.57,61.7z M5.44,51.62c-0.4,0.17-0.71,0.48-0.87,0.88
			s-0.16,0.84,0.01,1.24l0.78,1.84c0.7,1.66,2.01,2.95,3.68,3.62c1.67,0.68,3.5,0.66,5.16-0.04c3.43-1.45,5.03-5.42,3.58-8.84
			L17,48.48c-0.35-0.82-1.3-1.21-2.12-0.86L5.44,51.62z"/>
		<g id="hand">
			<path fill="#EAEAEA" d="M83.74,41.68H72.72c-1.55,0-2.81-1.26-2.81-2.81v-2.14c0-4.6,3.72-8.32,8.32-8.32l0,0
				c4.6,0,8.32,3.72,8.32,8.32v2.14C86.55,40.42,85.29,41.68,83.74,41.68z"/>
			<path fill="#1D1D1B" d="M83.74,42.68H72.72c-2.1,0-3.81-1.71-3.81-3.81v-2.15c0-5.14,4.18-9.32,9.32-9.32s9.32,4.18,9.32,9.32
				v2.15C87.55,40.97,85.84,42.68,83.74,42.68z M78.23,29.4c-4.04,0-7.32,3.28-7.32,7.32v2.15c0,1,0.81,1.81,1.81,1.81h11.02
				c1,0,1.81-0.81,1.81-1.81v-2.15C85.55,32.68,82.27,29.4,78.23,29.4z"/>
		</g>
	</g>
</g>
<g>
	<path fill="#EAEAEA" stroke="#000000" stroke-width="2" stroke-miterlimit="10" d="M270.14,172.62V93.49h28.8
		c8.83,0,15.61,1.62,20.36,4.86c4.74,3.24,7.12,7.8,7.12,13.68c0,4.27-1.44,8-4.33,11.2c-2.89,3.2-6.58,5.43-11.06,6.68v0.22
		c5.63,0.7,10.13,2.78,13.49,6.23c3.37,3.46,5.05,7.67,5.05,12.64c0,7.25-2.59,12.99-7.78,17.24s-12.27,6.37-21.24,6.37h-30.41
		V172.62z M287.97,106.63v18.76h7.83c3.68,0,6.58-0.89,8.69-2.68s3.17-4.24,3.17-7.37c0-5.81-4.34-8.72-13.02-8.72h-6.67V106.63z
		 M287.97,138.63v20.86h9.66c4.12,0,7.35-0.96,9.68-2.87c2.33-1.91,3.5-4.52,3.5-7.83c0-3.16-1.15-5.65-3.45-7.45
		c-2.3-1.8-5.51-2.7-9.63-2.7h-9.76V138.63z"/>
	<path fill="#EAEAEA" stroke="#000000" stroke-width="2" stroke-miterlimit="10" d="M394.57,172.62h-17.38v-8.61h-0.28
		c-4.3,6.66-10.06,9.99-17.27,9.99c-13.09,0-19.64-7.93-19.64-23.78v-34.1h17.38v32.55c0,7.98,3.16,11.97,9.49,11.97
		c3.13,0,5.63-1.09,7.5-3.28s2.81-5.16,2.81-8.91v-32.33h17.38v56.5H394.57z"/>
	<path fill="#EAEAEA" stroke="#000000" stroke-width="2" stroke-miterlimit="10" d="M426.68,172.62h-17.44V88.97h17.44V172.62z"/>
	<path fill="#EAEAEA" stroke="#000000" stroke-width="2" stroke-miterlimit="10" d="M497.97,172.62h-20.91l-18.04-28.03h-0.22v28.03
		h-17.44V88.97h17.44v53.24h0.22l16.83-26.1h20.69l-20.25,26.54L497.97,172.62z"/>
	<path fill="#EAEAEA" stroke="#000000" stroke-width="2" stroke-miterlimit="10" d="M551.54,172.62h-16.5v-8.11h-0.22
		c-3.79,6.33-9.4,9.49-16.83,9.49c-5.48,0-9.79-1.55-12.94-4.66c-3.14-3.11-4.72-7.26-4.72-12.44c0-10.96,6.49-17.29,19.48-18.98
		l15.34-2.04c0-6.18-3.35-9.27-10.04-9.27c-6.73,0-13.13,2.01-19.2,6.01v-13.13c2.43-1.25,5.75-2.35,9.96-3.31s8.05-1.43,11.5-1.43
		c16.11,0,24.17,8.04,24.17,24.11L551.54,172.62L551.54,172.62z M535.15,149.66v-3.81l-10.26,1.32c-5.67,0.74-8.5,3.29-8.5,7.67
		c0,1.99,0.69,3.61,2.07,4.88s3.25,1.9,5.6,1.9c3.27,0,5.94-1.13,8-3.39C534.12,155.98,535.15,153.12,535.15,149.66z"/>
	<path fill="#EAEAEA" stroke="#000000" stroke-width="2" stroke-miterlimit="10" d="M653.78,108.01h-22.57v64.61h-17.88v-64.61
		h-22.46V93.49h62.9v14.52H653.78z"/>
	<path fill="#EAEAEA" stroke="#000000" stroke-width="2" stroke-miterlimit="10" d="M733.57,93.49l-27.26,79.12h-20.19l-26.93-79.12
		h19.2l16.5,55.07c0.88,2.98,1.42,5.61,1.6,7.89h0.33c0.26-2.46,0.83-5.17,1.71-8.11l16.39-54.85H733.57z"/>
</g>
</svg>
